<svg xmlns="http://www.w3.org/2000/svg" width="32" height="32" viewBox="0 0 32 32">
  <rect width="32" height="32" fill="#65543f"/>
  <rect width="32" height="1" fill="#eeeeec" fill-opacity=".05"/>
  <g fill="#eeeeec">
    <circle cx="16" cy="16" r="12" opacity="0"/>
    <circle cx="16" cy="16" r="12" opacity="0"/>
    <path d="m16 10a6 6 0 0 0 -6 6 6 6 0 0 0 6 6 6 6 0 0 0 6 -6 6 6 0 0 0 -6 -6zm0 2a4 4 0 0 1 4 4 4 4 0 0 1 -4 4 4 4 0 0 1 -4 -4 4 4 0 0 1 4 -4z" opacity=".38"/>
  </g>
</svg>
