<svg xmlns="http://www.w3.org/2000/svg" width="144" height="144" viewBox="0 0 72 72" fill="#81f8ff">
  <circle cx="28" cy="66" r="2"/>
  <circle cx="36" cy="66" r="2"/>
  <circle cx="44" cy="66" r="2"/>
</svg>
