<svg xmlns="http://www.w3.org/2000/svg" width="32" height="32" viewBox="0 0 32 32">
  <rect width="32" height="32" fill="#b9c7c9"/>
  <rect width="32" height="1" fill="#a59c97" fill-opacity=".4"/>
  <g fill="#171717">
    <circle cx="16" cy="16" r="12" opacity="0"/>
    <circle cx="16" cy="16" r="12" opacity="0"/>
    <path d="m12 18h8v2h-8z" opacity=".6"/>
  </g>
</svg>
