<svg xmlns="http://www.w3.org/2000/svg" width="144" height="144" viewBox="0 0 72 72" fill="#d3c8b3">
  <circle cx="6" cy="32" r="2"/>
  <circle cx="6" cy="40" r="2"/>
  <circle cx="66" cy="36" r="2"/>
</svg>
