<svg xmlns="http://www.w3.org/2000/svg" width="24" height="24" viewBox="0 0 24 24" fill="#81f8ff">
  <circle cx="12" cy="12" r="10" opacity="0"/>
  <circle cx="12" cy="12" r="10" opacity="0"/>
  <path d="m8 14h8v2h-8z" opacity=".6"/>
</svg>
