<svg xmlns="http://www.w3.org/2000/svg" width="32" height="32" viewBox="0 0 32 32">
  <rect width="32" height="32" fill="#304d08"/>
  <rect width="32" height="1" fill="#d3c8b3" fill-opacity=".05"/>
  <g fill="#d3c8b3">
    <circle cx="16" cy="16" r="12" opacity="0"/>
    <circle cx="16" cy="16" r="12" opacity="0"/>
    <path d="m13 13v6h6v-6zm2 2h2v2h-2z" opacity=".5"/>
  </g>
</svg>
