<svg xmlns="http://www.w3.org/2000/svg" width="32" height="32" viewBox="0 0 32 32">
  <rect width="32" height="32" fill="#272a47"/>
  <rect width="32" height="1" fill="#81f8ff" fill-opacity=".05"/>
  <g fill="#81f8ff">
    <circle cx="16" cy="16" r="12" opacity="0"/>
    <circle cx="16" cy="16" r="12" opacity="0"/>
    <path d="m12 18h8v2h-8z" opacity=".6"/>
  </g>
</svg>
