<svg xmlns="http://www.w3.org/2000/svg" width="32" height="32" viewBox="0 0 32 32">
  <rect width="32" height="32" fill="#3b494a"/>
  <rect width="32" height="1" fill="#e6e6fa" fill-opacity=".05"/>
  <g fill="#e6e6fa">
    <circle cx="16" cy="16" r="12" opacity="0"/>
    <circle cx="16" cy="16" r="12" opacity="0"/>
    <path d="m22 14-1.41-1.41-4.59 4.59-4.59-4.59-1.41 1.41l6 6z" opacity=".6"/>
  </g>
</svg>
