<svg xmlns="http://www.w3.org/2000/svg" width="24" height="24" viewBox="0 0 24 24" fill="#00dc00">
  <circle cx="12" cy="12" r="10" opacity=".08"/>
  <circle cx="12" cy="12" r="10" opacity=".12"/>
  <path d="m9 9v6h6v-6h-6zm2 2h2v2h-2v-2z" opacity=".7"/>
</svg>
