<svg xmlns="http://www.w3.org/2000/svg" width="24" height="24" viewBox="0 0 24 24" fill="#d3c8b3">
  <circle cx="12" cy="12" r="10" opacity=".08"/>
  <circle cx="12" cy="12" r="10" opacity=".12"/>
  <path d="m8 8v8h8v-8h-8zm2 2h4v4h-4v-4z" opacity=".38"/>
</svg>
