<svg xmlns="http://www.w3.org/2000/svg" width="24" height="24" viewBox="0 0 24 24" fill="#d3c8b3">
  <circle cx="12" cy="12" r="10" opacity="0"/>
  <circle cx="12" cy="12" r="10" opacity="0"/>
  <path d="m9 9v6h6v-6h-6zm2 2h2v2h-2v-2z" opacity=".38"/>
</svg>
