<svg xmlns="http://www.w3.org/2000/svg" width="32" height="32" viewBox="0 0 32 32">
  <rect width="32" height="32" fill="#2d2e6a"/>
  <rect width="32" height="1" fill="#81f8ff" fill-opacity=".05"/>
  <g fill="#81f8ff">
    <circle cx="16" cy="16" r="12" opacity=".08"/>
    <circle cx="16" cy="16" r="12" opacity=".12"/>
    <circle cx="16" cy="16" r="2" opacity=".6"/>
  </g>
</svg>
